R Programming for Data Science
…
A typical call to read_csv will look as follows.

> library(readr)
> teams <- read_csv("data/team_standings.csv")
Parsed with column specification:
cols(
  Standing = col_double(),
  Team = col_character()
)
> teams
# A tibble: 32 x 2
   Standing Team       
      <dbl> <chr>      
 1        1 Spain      
 2        2 Netherlands
 3        3 Germany    
 4        4 Uruguay    
 5        5 Argentina  
 6        6 Brazil     
 7        7 Ghana      
 8        8 Paraguay   
 9        9 Japan      
10       10 Chile      
# … with 22 more rows
…
